dump.vcd
$date
Tue Jul 25 01:16:08 2023
$end
$version
Riviera-PRO Version 2022.04.117.8517
$end
$timescale
1 ns
$end

$scope module tb $end
$var integer 32 ! count $end

$scope module vif $end
$var reg 1 " clk $end
$var reg 1 # rst $end
$var reg 1 $ newd $end
$var reg 1 % wr $end
$var reg 8 & wdata [7:0] $end
$var reg 7 ' addr [6:0] $end
$var reg 8 ( rdata [7:0] $end
$var reg 1 ) done $end
$var reg 1 * sclk_ref $end
$upscope $end


$scope module dut $end
$var wire 1 + clk $end
$var wire 1 , rst $end
$var wire 1 - newd $end
$var wire 1 . wr $end
$var wire 8 / wdata [7:0] $end
$var wire 7 0 addr [6:0] $end
$var wire 8 1 rdata [7:0] $end
$var wire 1 2 done $end
$var wire 1 3 sdac $end
$var wire 1 4 sclc $end
$var wire 1 5 ackc $end

$scope module e1 $end
$var wire 1 6 clk $end
$var wire 1 7 rst $end
$var wire 1 8 newd $end
$var wire 1 5 ack $end
$var wire 1 9 wr $end
$var wire 1 4 scl $end
$var wire 1 3 sda $end
$var wire 8 : wdata [7:0] $end
$var wire 7 ; addr [6:0] $end
$var reg 8 < rdata [7:0] $end
$var reg 1 = done $end
$var reg 1 > sda_en $end
$var reg 1 ? sclt $end
$var reg 1 @ sdat $end
$var reg 1 A donet $end
$var reg 8 B rdatat [7:0] $end
$var reg 8 C addrt [7:0] $end
$var integer 32 D state $end
$var reg 1 E sclk_ref $end
$var integer 32 F count $end
$var integer 32 G i $end
$upscope $end


$scope module m1 $end
$var wire 1 H clk $end
$var wire 1 I rst $end
$var wire 1 4 scl $end
$var wire 1 3 sda $end
$var reg 1 J ack $end
$var reg 8 K addrin [7:0] $end
$var reg 8 L datain [7:0] $end
$var reg 8 M temprd [7:0] $end
$var reg 1 N sda_en $end
$var reg 1 O sdar $end
$var integer 32 P i $end
$var integer 32 Q count $end
$var reg 1 R sclk_ref $end
$var integer 32 S state $end
$upscope $end

$upscope $end

$upscope $end

$enddefinitions $end
$dumpvars
b10100 !
0"
1#
0$
x%
b0 &
b0 '
bx (
x)
0*
0+
1,
0-
x.
b0 /
b0 0
bx 1
x2
z3
04
x5
06
17
08
x9
b0 :
b0 ;
bx <
x=
0>
0?
0@
0A
bx B
bx C
b0 D
0E
b0 F
b0 G
0H
1I
xJ
bx K
bx L
bx M
1N
0O
b0 P
b0 Q
0R
b0 S
$end
#5
1"
1+
16
1H
b1 F
b1 Q
#10
0"
0+
06
0H
#15
1"
1+
16
1H
b10 F
b10 Q
#20
0"
0+
06
0H
#25
1"
1+
16
1H
b11 F
b11 Q
#30
0"
0+
06
0H
#35
1"
1+
16
1H
b100 F
b100 Q
#40
0"
0+
06
0H
#45
1"
1+
16
1H
b101 F
b101 Q
#50
0"
0+
06
0H
#55
1"
1+
16
1H
b110 F
b110 Q
#60
0"
0+
06
0H
#65
1"
1+
16
1H
b111 F
b111 Q
#70
0"
0+
06
0H
#75
1"
1+
16
1H
b1000 F
b1000 Q
#80
0"
0+
06
0H
#85
1"
1+
16
1H
b1001 F
b1001 Q
#90
0"
0+
06
0H
#95
1"
1+
16
1H
0#
b1010 F
b1010 Q
0,
07
0I
#100
0"
0+
06
0H
#105
1"
1+
16
1H
b0 F
1E
b0 Q
1R
1*
14
0=
1>
1?
1@
02
0)
13
#110
0"
0+
06
0H
#115
1"
1+
16
1H
b1 F
b1 Q
#120
0"
0+
06
0H
#125
1"
1+
16
1H
b10 F
b10 Q
#130
0"
0+
06
0H
#135
1"
1+
16
1H
b11 F
b11 Q
#140
0"
0+
06
0H
#145
1"
1+
16
1H
b100 F
b100 Q
#150
0"
0+
06
0H
#155
1"
1+
16
1H
b101 F
b101 Q
#160
0"
0+
06
0H
#165
1"
1+
16
1H
b110 F
b110 Q
#170
0"
0+
06
0H
#175
1"
1+
16
1H
b111 F
b111 Q
#180
0"
0+
06
0H
#185
1"
1+
16
1H
b1000 F
b1000 Q
#190
0"
0+
06
0H
#195
1"
1+
16
1H
b1001 F
b1001 Q
#200
0"
0+
06
0H
#205
1"
1+
16
1H
b1010 F
b1010 Q
#210
0"
0+
06
0H
#215
1"
1+
16
1H
b0 F
0E
b0 Q
0R
0*
04
#220
0"
0+
06
0H
#225
1"
1+
16
1H
b1 F
b1 Q
#230
0"
0+
06
0H
#235
1"
1+
16
1H
b10 F
b10 Q
#240
0"
0+
06
0H
#245
1"
1+
16
1H
b11 F
b11 Q
#250
0"
0+
06
0H
#255
1"
1+
16
1H
b100 F
b100 Q
#260
0"
0+
06
0H
#265
1"
1+
16
1H
b101 F
b101 Q
#270
0"
0+
06
0H
#275
1"
1+
16
1H
b110 F
b110 Q
#280
0"
0+
06
0H
#285
1"
1+
16
1H
b111 F
b111 Q
#290
0"
0+
06
0H
#295
1"
1+
16
1H
b1000 F
b1000 Q
#300
0"
0+
06
0H
#305
1"
1+
16
1H
b1001 F
b1001 Q
#310
0"
0+
06
0H
#315
1"
1+
16
1H
b1010 F
b1010 Q
#320
0"
0+
06
0H
#325
1"
1+
16
1H
b0 F
1E
b0 Q
1R
1*
14
1$
1%
b100111 &
b11 '
b11 0
b11 ;
b100111 /
b100111 :
1.
19
1-
18
#330
0"
0+
06
0H
#335
1"
1+
16
1H
b1 F
b1 Q
#340
0"
0+
06
0H
#345
1"
1+
16
1H
b10 F
b10 Q
#350
0"
0+
06
0H
#355
1"
1+
16
1H
b11 F
b11 Q
#360
0"
0+
06
0H
#365
1"
1+
16
1H
b100 F
b100 Q
#370
0"
0+
06
0H
#375
1"
1+
16
1H
b101 F
b101 Q
#380
0"
0+
06
0H
#385
1"
1+
16
1H
b110 F
b110 Q
#390
0"
0+
06
0H
#395
1"
1+
16
1H
b111 F
b111 Q
#400
0"
0+
06
0H
#405
1"
1+
16
1H
b1000 F
b1000 Q
#410
0"
0+
06
0H
#415
1"
1+
16
1H
b1001 F
b1001 Q
#420
0"
0+
06
0H
#425
1"
1+
16
1H
b1010 F
b1010 Q
#430
0"
0+
06
0H
#435
1"
1+
16
1H
b0 F
0E
b0 Q
0R
0*
04
#440
0"
0+
06
0H
#445
1"
1+
16
1H
b1 F
b1 Q
#450
0"
0+
06
0H
#455
1"
1+
16
1H
b10 F
b10 Q
#460
0"
0+
06
0H
#465
1"
1+
16
1H
b11 F
b11 Q
#470
0"
0+
06
0H
#475
1"
1+
16
1H
b100 F
b100 Q
#480
0"
0+
06
0H
#485
1"
1+
16
1H
b101 F
b101 Q
#490
0"
0+
06
0H
#495
1"
1+
16
1H
b110 F
b110 Q
#500
0"
0+
06
0H
#505
1"
1+
16
1H
b111 F
b111 Q
#510
0"
0+
06
0H
#515
1"
1+
16
1H
b1000 F
b1000 Q
#520
0"
0+
06
0H
#525
1"
1+
16
1H
b1001 F
b1001 Q
#530
0"
0+
06
0H
#535
1"
1+
16
1H
b1010 F
b1010 Q
#540
0"
0+
06
0H
#545
1"
1+
16
1H
b0 F
1E
b0 Q
1R
1*
14
b10 D
0$
0-
08
#550
0"
0+
06
0H
#555
1"
1+
16
1H
b1 F
b1 Q
#560
0"
0+
06
0H
#565
1"
1+
16
1H
b10 F
b10 Q
#570
0"
0+
06
0H
#575
1"
1+
16
1H
b11 F
b11 Q
#580
0"
0+
06
0H
#585
1"
1+
16
1H
b100 F
b100 Q
#590
0"
0+
06
0H
#595
1"
1+
16
1H
b101 F
b101 Q
#600
0"
0+
06
0H
#605
1"
1+
16
1H
b110 F
b110 Q
#610
0"
0+
06
0H
#615
1"
1+
16
1H
b111 F
b111 Q
#620
0"
0+
06
0H
#625
1"
1+
16
1H
b1000 F
b1000 Q
#630
0"
0+
06
0H
#635
1"
1+
16
1H
b1001 F
b1001 Q
#640
0"
0+
06
0H
#645
1"
1+
16
1H
b1010 F
b1010 Q
#650
0"
0+
06
0H
#655
1"
1+
16
1H
b0 F
0E
b0 Q
0R
0*
#660
0"
0+
06
0H
#665
1"
1+
16
1H
b1 F
b1 Q
#670
0"
0+
06
0H
#675
1"
1+
16
1H
b10 F
b10 Q
#680
0"
0+
06
0H
#685
1"
1+
16
1H
b11 F
b11 Q
#690
0"
0+
06
0H
#695
1"
1+
16
1H
b100 F
b100 Q
#700
0"
0+
06
0H
#705
1"
1+
16
1H
b101 F
b101 Q
#710
0"
0+
06
0H
#715
1"
1+
16
1H
b110 F
b110 Q
#720
0"
0+
06
0H
#725
1"
1+
16
1H
b111 F
b111 Q
#730
0"
0+
06
0H
#735
1"
1+
16
1H
b1000 F
b1000 Q
#740
0"
0+
06
0H
#745
1"
1+
16
1H
b1001 F
b1001 Q
#750
0"
0+
06
0H
#755
1"
1+
16
1H
b1010 F
b1010 Q
#760
0"
0+
06
0H
#765
1"
1+
16
1H
b0 F
1E
b0 Q
1R
1*
0@
b1 D
b111 C
03
#770
0"
0+
06
0H
#775
1"
1+
16
1H
b1 F
b1 Q
#780
0"
0+
06
0H
#785
1"
1+
16
1H
b10 F
b10 Q
#790
0"
0+
06
0H
#795
1"
1+
16
1H
b11 F
b11 Q
#800
0"
0+
06
0H
#805
1"
1+
16
1H
b100 F
b100 Q
#810
0"
0+
06
0H
#815
1"
1+
16
1H
b101 F
b101 Q
#820
0"
0+
06
0H
#825
1"
1+
16
1H
b110 F
b110 Q
#830
0"
0+
06
0H
#835
1"
1+
16
1H
b111 F
b111 Q
#840
0"
0+
06
0H
#845
1"
1+
16
1H
b1000 F
b1000 Q
#850
0"
0+
06
0H
#855
1"
1+
16
1H
b1001 F
b1001 Q
#860
0"
0+
06
0H
#865
1"
1+
16
1H
b1010 F
b1010 Q
#870
0"
0+
06
0H
#875
1"
1+
16
1H
b0 F
0E
b0 Q
0R
0*
04
#880
0"
0+
06
0H
#885
1"
1+
16
1H
b1 F
b1 Q
#890
0"
0+
06
0H
#895
1"
1+
16
1H
b10 F
b10 Q
#900
0"
0+
06
0H
#905
1"
1+
16
1H
b11 F
b11 Q
#910
0"
0+
06
0H
#915
1"
1+
16
1H
b100 F
b100 Q
#920
0"
0+
06
0H
#925
1"
1+
16
1H
b101 F
b101 Q
#930
0"
0+
06
0H
#935
1"
1+
16
1H
b110 F
b110 Q
#940
0"
0+
06
0H
#945
1"
1+
16
1H
b111 F
b111 Q
#950
0"
0+
06
0H
#955
1"
1+
16
1H
b1000 F
b1000 Q
#960
0"
0+
06
0H
#965
1"
1+
16
1H
b1001 F
b1001 Q
#970
0"
0+
06
0H
#975
1"
1+
16
1H
b1010 F
b1010 Q
#980
0"
0+
06
0H
#985
1"
1+
16
1H
b0 F
1E
b0 Q
1R
1*
14
b11 D
1@
b1 G
b1 S
13
#990
0"
0+
06
0H
#995
1"
1+
16
1H
b1 F
b1 Q
#1000
0"
0+
06
0H
#1005
1"
1+
16
1H
b10 F
b10 Q
#1010
0"
0+
06
0H
#1015
1"
1+
16
1H
b11 F
b11 Q
#1020
0"
0+
06
0H
#1025
1"
1+
16
1H
b100 F
b100 Q
#1030
0"
0+
06
0H
#1035
1"
1+
16
1H
b101 F
b101 Q
#1040
0"
0+
06
0H
#1045
1"
1+
16
1H
b110 F
b110 Q
#1050
0"
0+
06
0H
#1055
1"
1+
16
1H
b111 F
b111 Q
#1060
0"
0+
06
0H
#1065
1"
1+
16
1H
b1000 F
b1000 Q
#1070
0"
0+
06
0H
#1075
1"
1+
16
1H
b1001 F
b1001 Q
#1080
0"
0+
06
0H
#1085
1"
1+
16
1H
b1010 F
b1010 Q
#1090
0"
0+
06
0H
#1095
1"
1+
16
1H
b0 F
0E
b0 Q
0R
0*
04
#1100
0"
0+
06
0H
#1105
1"
1+
16
1H
b1 F
b1 Q
#1110
0"
0+
06
0H
#1115
1"
1+
16
1H
b10 F
b10 Q
#1120
0"
0+
06
0H
#1125
1"
1+
16
1H
b11 F
b11 Q
#1130
0"
0+
06
0H
#1135
1"
1+
16
1H
b100 F
b100 Q
#1140
0"
0+
06
0H
#1145
1"
1+
16
1H
b101 F
b101 Q
#1150
0"
0+
06
0H
#1155
1"
1+
16
1H
b110 F
b110 Q
#1160
0"
0+
06
0H
#1165
1"
1+
16
1H
b111 F
b111 Q
#1170
0"
0+
06
0H
#1175
1"
1+
16
1H
b1000 F
b1000 Q
#1180
0"
0+
06
0H
#1185
1"
1+
16
1H
b1001 F
b1001 Q
#1190
0"
0+
06
0H
#1195
1"
1+
16
1H
b1010 F
b1010 Q
#1200
0"
0+
06
0H
#1205
1"
1+
16
1H
b0 F
1E
b0 Q
1R
1*
14
b10 G
b1 P
bx1 K
#1210
0"
0+
06
0H
#1215
1"
1+
16
1H
b1 F
b1 Q
#1220
0"
0+
06
0H
#1225
1"
1+
16
1H
b10 F
b10 Q
#1230
0"
0+
06
0H
#1235
1"
1+
16
1H
b11 F
b11 Q
#1240
0"
0+
06
0H
#1245
1"
1+
16
1H
b100 F
b100 Q
#1250
0"
0+
06
0H
#1255
1"
1+
16
1H
b101 F
b101 Q
#1260
0"
0+
06
0H
#1265
1"
1+
16
1H
b110 F
b110 Q
#1270
0"
0+
06
0H
#1275
1"
1+
16
1H
b111 F
b111 Q
#1280
0"
0+
06
0H
#1285
1"
1+
16
1H
b1000 F
b1000 Q
#1290
0"
0+
06
0H
#1295
1"
1+
16
1H
b1001 F
b1001 Q
#1300
0"
0+
06
0H
#1305
1"
1+
16
1H
b1010 F
b1010 Q
#1310
0"
0+
06
0H
#1315
1"
1+
16
1H
b0 F
0E
b0 Q
0R
0*
04
#1320
0"
0+
06
0H
#1325
1"
1+
16
1H
b1 F
b1 Q
#1330
0"
0+
06
0H
#1335
1"
1+
16
1H
b10 F
b10 Q
#1340
0"
0+
06
0H
#1345
1"
1+
16
1H
b11 F
b11 Q
#1350
0"
0+
06
0H
#1355
1"
1+
16
1H
b100 F
b100 Q
#1360
0"
0+
06
0H
#1365
1"
1+
16
1H
b101 F
b101 Q
#1370
0"
0+
06
0H
#1375
1"
1+
16
1H
b110 F
b110 Q
#1380
0"
0+
06
0H
#1385
1"
1+
16
1H
b111 F
b111 Q
#1390
0"
0+
06
0H
#1395
1"
1+
16
1H
b1000 F
b1000 Q
#1400
0"
0+
06
0H
#1405
1"
1+
16
1H
b1001 F
b1001 Q
#1410
0"
0+
06
0H
#1415
1"
1+
16
1H
b1010 F
b1010 Q
#1420
0"
0+
06
0H
#1425
1"
1+
16
1H
b0 F
1E
b0 Q
1R
1*
14
b11 G
b10 P
bx11 K
#1430
0"
0+
06
0H
#1435
1"
1+
16
1H
b1 F
b1 Q
#1440
0"
0+
06
0H
#1445
1"
1+
16
1H
b10 F
b10 Q
#1450
0"
0+
06
0H
#1455
1"
1+
16
1H
b11 F
b11 Q
#1460
0"
0+
06
0H
#1465
1"
1+
16
1H
b100 F
b100 Q
#1470
0"
0+
06
0H
#1475
1"
1+
16
1H
b101 F
b101 Q
#1480
0"
0+
06
0H
#1485
1"
1+
16
1H
b110 F
b110 Q
#1490
0"
0+
06
0H
#1495
1"
1+
16
1H
b111 F
b111 Q
#1500
0"
0+
06
0H
#1505
1"
1+
16
1H
b1000 F
b1000 Q
#1510
0"
0+
06
0H
#1515
1"
1+
16
1H
b1001 F
b1001 Q
#1520
0"
0+
06
0H
#1525
1"
1+
16
1H
b1010 F
b1010 Q
#1530
0"
0+
06
0H
#1535
1"
1+
16
1H
b0 F
0E
b0 Q
0R
0*
04
#1540
0"
0+
06
0H
#1545
1"
1+
16
1H
b1 F
b1 Q
#1550
0"
0+
06
0H
#1555
1"
1+
16
1H
b10 F
b10 Q
#1560
0"
0+
06
0H
#1565
1"
1+
16
1H
b11 F
b11 Q
#1570
0"
0+
06
0H
#1575
1"
1+
16
1H
b100 F
b100 Q
#1580
0"
0+
06
0H
#1585
1"
1+
16
1H
b101 F
b101 Q
#1590
0"
0+
06
0H
#1595
1"
1+
16
1H
b110 F
b110 Q
#1600
0"
0+
06
0H
#1605
1"
1+
16
1H
b111 F
b111 Q
#1610
0"
0+
06
0H
#1615
1"
1+
16
1H
b1000 F
b1000 Q
#1620
0"
0+
06
0H
#1625
1"
1+
16
1H
b1001 F
b1001 Q
#1630
0"
0+
06
0H
#1635
1"
1+
16
1H
b1010 F
b1010 Q
#1640
0"
0+
06
0H
#1645
1"
1+
16
1H
b0 F
1E
b0 Q
1R
1*
14
0@
b100 G
b11 P
bx111 K
03
#1650
0"
0+
06
0H
#1655
1"
1+
16
1H
b1 F
b1 Q
#1660
0"
0+
06
0H
#1665
1"
1+
16
1H
b10 F
b10 Q
#1670
0"
0+
06
0H
#1675
1"
1+
16
1H
b11 F
b11 Q
#1680
0"
0+
06
0H
#1685
1"
1+
16
1H
b100 F
b100 Q
#1690
0"
0+
06
0H
#1695
1"
1+
16
1H
b101 F
b101 Q
#1700
0"
0+
06
0H
#1705
1"
1+
16
1H
b110 F
b110 Q
#1710
0"
0+
06
0H
#1715
1"
1+
16
1H
b111 F
b111 Q
#1720
0"
0+
06
0H
#1725
1"
1+
16
1H
b1000 F
b1000 Q
#1730
0"
0+
06
0H
#1735
1"
1+
16
1H
b1001 F
b1001 Q
#1740
0"
0+
06
0H
#1745
1"
1+
16
1H
b1010 F
b1010 Q
#1750
0"
0+
06
0H
#1755
1"
1+
16
1H
b0 F
0E
b0 Q
0R
0*
04
#1760
0"
0+
06
0H
#1765
1"
1+
16
1H
b1 F
b1 Q
#1770
0"
0+
06
0H
#1775
1"
1+
16
1H
b10 F
b10 Q
#1780
0"
0+
06
0H
#1785
1"
1+
16
1H
b11 F
b11 Q
#1790
0"
0+
06
0H
#1795
1"
1+
16
1H
b100 F
b100 Q
#1800
0"
0+
06
0H
#1805
1"
1+
16
1H
b101 F
b101 Q
#1810
0"
0+
06
0H
#1815
1"
1+
16
1H
b110 F
b110 Q
#1820
0"
0+
06
0H
#1825
1"
1+
16
1H
b111 F
b111 Q
#1830
0"
0+
06
0H
#1835
1"
1+
16
1H
b1000 F
b1000 Q
#1840
0"
0+
06
0H
#1845
1"
1+
16
1H
b1001 F
b1001 Q
#1850
0"
0+
06
0H
#1855
1"
1+
16
1H
b1010 F
b1010 Q
#1860
0"
0+
06
0H
#1865
1"
1+
16
1H
b0 F
1E
b0 Q
1R
1*
14
b101 G
b100 P
bx0111 K
#1870
0"
0+
06
0H
#1875
1"
1+
16
1H
b1 F
b1 Q
#1880
0"
0+
06
0H
#1885
1"
1+
16
1H
b10 F
b10 Q
#1890
0"
0+
06
0H
#1895
1"
1+
16
1H
b11 F
b11 Q
#1900
0"
0+
06
0H
#1905
1"
1+
16
1H
b100 F
b100 Q
#1910
0"
0+
06
0H
#1915
1"
1+
16
1H
b101 F
b101 Q
#1920
0"
0+
06
0H
#1925
1"
1+
16
1H
b110 F
b110 Q
#1930
0"
0+
06
0H
#1935
1"
1+
16
1H
b111 F
b111 Q
#1940
0"
0+
06
0H
#1945
1"
1+
16
1H
b1000 F
b1000 Q
#1950
0"
0+
06
0H
#1955
1"
1+
16
1H
b1001 F
b1001 Q
#1960
0"
0+
06
0H
#1965
1"
1+
16
1H
b1010 F
b1010 Q
#1970
0"
0+
06
0H
#1975
1"
1+
16
1H
b0 F
0E
b0 Q
0R
0*
04
#1980
0"
0+
06
0H
#1985
1"
1+
16
1H
b1 F
b1 Q
#1990
0"
0+
06
0H
#1995
1"
1+
16
1H
b10 F
b10 Q
#2000
0"
0+
06
0H
#2005
1"
1+
16
1H
b11 F
b11 Q
#2010
0"
0+
06
0H
#2015
1"
1+
16
1H
b100 F
b100 Q
#2020
0"
0+
06
0H
#2025
1"
1+
16
1H
b101 F
b101 Q
#2030
0"
0+
06
0H
#2035
1"
1+
16
1H
b110 F
b110 Q
#2040
0"
0+
06
0H
#2045
1"
1+
16
1H
b111 F
b111 Q
#2050
0"
0+
06
0H
#2055
1"
1+
16
1H
b1000 F
b1000 Q
#2060
0"
0+
06
0H
#2065
1"
1+
16
1H
b1001 F
b1001 Q
#2070
0"
0+
06
0H
#2075
1"
1+
16
1H
b1010 F
b1010 Q
#2080
0"
0+
06
0H
#2085
1"
1+
16
1H
b0 F
1E
b0 Q
1R
1*
14
b110 G
b101 P
bx00111 K
#2090
0"
0+
06
0H
#2095
1"
1+
16
1H
b1 F
b1 Q
#2100
0"
0+
06
0H
#2105
1"
1+
16
1H
b10 F
b10 Q
#2110
0"
0+
06
0H
#2115
1"
1+
16
1H
b11 F
b11 Q
#2120
0"
0+
06
0H
#2125
1"
1+
16
1H
b100 F
b100 Q
#2130
0"
0+
06
0H
#2135
1"
1+
16
1H
b101 F
b101 Q
#2140
0"
0+
06
0H
#2145
1"
1+
16
1H
b110 F
b110 Q
#2150
0"
0+
06
0H
#2155
1"
1+
16
1H
b111 F
b111 Q
#2160
0"
0+
06
0H
#2165
1"
1+
16
1H
b1000 F
b1000 Q
#2170
0"
0+
06
0H
#2175
1"
1+
16
1H
b1001 F
b1001 Q
#2180
0"
0+
06
0H
#2185
1"
1+
16
1H
b1010 F
b1010 Q
#2190
0"
0+
06
0H
#2195
1"
1+
16
1H
b0 F
0E
b0 Q
0R
0*
04
#2200
0"
0+
06
0H
#2205
1"
1+
16
1H
b1 F
b1 Q
#2210
0"
0+
06
0H
#2215
1"
1+
16
1H
b10 F
b10 Q
#2220
0"
0+
06
0H
#2225
1"
1+
16
1H
b11 F
b11 Q
#2230
0"
0+
06
0H
#2235
1"
1+
16
1H
b100 F
b100 Q
#2240
0"
0+
06
0H
#2245
1"
1+
16
1H
b101 F
b101 Q
#2250
0"
0+
06
0H
#2255
1"
1+
16
1H
b110 F
b110 Q
#2260
0"
0+
06
0H
#2265
1"
1+
16
1H
b111 F
b111 Q
#2270
0"
0+
06
0H
#2275
1"
1+
16
1H
b1000 F
b1000 Q
#2280
0"
0+
06
0H
#2285
1"
1+
16
1H
b1001 F
b1001 Q
#2290
0"
0+
06
0H
#2295
1"
1+
16
1H
b1010 F
b1010 Q
#2300
0"
0+
06
0H
#2305
1"
1+
16
1H
b0 F
1E
b0 Q
1R
1*
14
b111 G
b110 P
bx000111 K
#2310
0"
0+
06
0H
#2315
1"
1+
16
1H
b1 F
b1 Q
#2320
0"
0+
06
0H
#2325
1"
1+
16
1H
b10 F
b10 Q
#2330
0"
0+
06
0H
#2335
1"
1+
16
1H
b11 F
b11 Q
#2340
0"
0+
06
0H
#2345
1"
1+
16
1H
b100 F
b100 Q
#2350
0"
0+
06
0H
#2355
1"
1+
16
1H
b101 F
b101 Q
#2360
0"
0+
06
0H
#2365
1"
1+
16
1H
b110 F
b110 Q
#2370
0"
0+
06
0H
#2375
1"
1+
16
1H
b111 F
b111 Q
#2380
0"
0+
06
0H
#2385
1"
1+
16
1H
b1000 F
b1000 Q
#2390
0"
0+
06
0H
#2395
1"
1+
16
1H
b1001 F
b1001 Q
#2400
0"
0+
06
0H
#2405
1"
1+
16
1H
b1010 F
b1010 Q
#2410
0"
0+
06
0H
#2415
1"
1+
16
1H
b0 F
0E
b0 Q
0R
0*
04
#2420
0"
0+
06
0H
#2425
1"
1+
16
1H
b1 F
b1 Q
#2430
0"
0+
06
0H
#2435
1"
1+
16
1H
b10 F
b10 Q
#2440
0"
0+
06
0H
#2445
1"
1+
16
1H
b11 F
b11 Q
#2450
0"
0+
06
0H
#2455
1"
1+
16
1H
b100 F
b100 Q
#2460
0"
0+
06
0H
#2465
1"
1+
16
1H
b101 F
b101 Q
#2470
0"
0+
06
0H
#2475
1"
1+
16
1H
b110 F
b110 Q
#2480
0"
0+
06
0H
#2485
1"
1+
16
1H
b111 F
b111 Q
#2490
0"
0+
06
0H
#2495
1"
1+
16
1H
b1000 F
b1000 Q
#2500
0"
0+
06
0H
#2505
1"
1+
16
1H
b1001 F
b1001 Q
#2510
0"
0+
06
0H
#2515
1"
1+
16
1H
b1010 F
b1010 Q
#2520
0"
0+
06
0H
#2525
1"
1+
16
1H
b0 F
1E
b0 Q
1R
1*
14
b1000 G
b111 P
bx0000111 K
#2530
0"
0+
06
0H
#2535
1"
1+
16
1H
b1 F
b1 Q
#2540
0"
0+
06
0H
#2545
1"
1+
16
1H
b10 F
b10 Q
#2550
0"
0+
06
0H
#2555
1"
1+
16
1H
b11 F
b11 Q
#2560
0"
0+
06
0H
#2565
1"
1+
16
1H
b100 F
b100 Q
#2570
0"
0+
06
0H
#2575
1"
1+
16
1H
b101 F
b101 Q
#2580
0"
0+
06
0H
#2585
1"
1+
16
1H
b110 F
b110 Q
#2590
0"
0+
06
0H
#2595
1"
1+
16
1H
b111 F
b111 Q
#2600
0"
0+
06
0H
#2605
1"
1+
16
1H
b1000 F
b1000 Q
#2610
0"
0+
06
0H
#2615
1"
1+
16
1H
b1001 F
b1001 Q
#2620
0"
0+
06
0H
#2625
1"
1+
16
1H
b1010 F
b1010 Q
#2630
0"
0+
06
0H
#2635
1"
1+
16
1H
b0 F
0E
b0 Q
0R
0*
04
#2640
0"
0+
06
0H
#2645
1"
1+
16
1H
b1 F
b1 Q
#2650
0"
0+
06
0H
#2655
1"
1+
16
1H
b10 F
b10 Q
#2660
0"
0+
06
0H
#2665
1"
1+
16
1H
b11 F
b11 Q
#2670
0"
0+
06
0H
#2675
1"
1+
16
1H
b100 F
b100 Q
#2680
0"
0+
06
0H
#2685
1"
1+
16
1H
b101 F
b101 Q
#2690
0"
0+
06
0H
#2695
1"
1+
16
1H
b110 F
b110 Q
#2700
0"
0+
06
0H
#2705
1"
1+
16
1H
b111 F
b111 Q
#2710
0"
0+
06
0H
#2715
1"
1+
16
1H
b1000 F
b1000 Q
#2720
0"
0+
06
0H
#2725
1"
1+
16
1H
b1001 F
b1001 Q
#2730
0"
0+
06
0H
#2735
1"
1+
16
1H
b1010 F
b1010 Q
#2740
0"
0+
06
0H
#2745
1"
1+
16
1H
b0 F
1E
b0 Q
1R
1*
14
b0 G
b100 D
b1000 P
b111 K
#2750
0"
0+
06
0H
#2755
1"
1+
16
1H
b1 F
b1 Q
#2760
0"
0+
06
0H
#2765
1"
1+
16
1H
b10 F
b10 Q
#2770
0"
0+
06
0H
#2775
1"
1+
16
1H
b11 F
b11 Q
#2780
0"
0+
06
0H
#2785
1"
1+
16
1H
b100 F
b100 Q
#2790
0"
0+
06
0H
#2795
1"
1+
16
1H
b101 F
b101 Q
#2800
0"
0+
06
0H
#2805
1"
1+
16
1H
b110 F
b110 Q
#2810
0"
0+
06
0H
#2815
1"
1+
16
1H
b111 F
b111 Q
#2820
0"
0+
06
0H
#2825
1"
1+
16
1H
b1000 F
b1000 Q
#2830
0"
0+
06
0H
#2835
1"
1+
16
1H
b1001 F
b1001 Q
#2840
0"
0+
06
0H
#2845
1"
1+
16
1H
b1010 F
b1010 Q
#2850
0"
0+
06
0H
#2855
1"
1+
16
1H
b0 F
0E
b0 Q
0R
0*
04
#2860
0"
0+
06
0H
#2865
1"
1+
16
1H
b1 F
b1 Q
#2870
0"
0+
06
0H
#2875
1"
1+
16
1H
b10 F
b10 Q
#2880
0"
0+
06
0H
#2885
1"
1+
16
1H
b11 F
b11 Q
#2890
0"
0+
06
0H
#2895
1"
1+
16
1H
b100 F
b100 Q
#2900
0"
0+
06
0H
#2905
1"
1+
16
1H
b101 F
b101 Q
#2910
0"
0+
06
0H
#2915
1"
1+
16
1H
b110 F
b110 Q
#2920
0"
0+
06
0H
#2925
1"
1+
16
1H
b111 F
b111 Q
#2930
0"
0+
06
0H
#2935
1"
1+
16
1H
b1000 F
b1000 Q
#2940
0"
0+
06
0H
#2945
1"
1+
16
1H
b1001 F
b1001 Q
#2950
0"
0+
06
0H
#2955
1"
1+
16
1H
b1010 F
b1010 Q
#2960
0"
0+
06
0H
#2965
1"
1+
16
1H
b0 F
1E
b0 Q
1R
1*
14
b10 S
b10010001 M
1J
b0 P
15
#2970
0"
0+
06
0H
#2975
1"
1+
16
1H
b1 F
b1 Q
#2980
0"
0+
06
0H
#2985
1"
1+
16
1H
b10 F
b10 Q
#2990
0"
0+
06
0H
#2995
1"
1+
16
1H
b11 F
b11 Q
#3000
0"
0+
06
0H
#3005
1"
1+
16
1H
b100 F
b100 Q
#3010
0"
0+
06
0H
#3015
1"
1+
16
1H
b101 F
b101 Q
#3020
0"
0+
06
0H
#3025
1"
1+
16
1H
b110 F
b110 Q
#3030
0"
0+
06
0H
#3035
1"
1+
16
1H
b111 F
b111 Q
#3040
0"
0+
06
0H
#3045
1"
1+
16
1H
b1000 F
b1000 Q
#3050
0"
0+
06
0H
#3055
1"
1+
16
1H
b1001 F
b1001 Q
#3060
0"
0+
06
0H
#3065
1"
1+
16
1H
b1010 F
b1010 Q
#3070
0"
0+
06
0H
#3075
1"
1+
16
1H
b0 F
0E
b0 Q
0R
0*
04
#3080
0"
0+
06
0H
#3085
1"
1+
16
1H
b1 F
b1 Q
#3090
0"
0+
06
0H
#3095
1"
1+
16
1H
b10 F
b10 Q
#3100
0"
0+
06
0H
#3105
1"
1+
16
1H
b11 F
b11 Q
#3110
0"
0+
06
0H
#3115
1"
1+
16
1H
b100 F
b100 Q
#3120
0"
0+
06
0H
#3125
1"
1+
16
1H
b101 F
b101 Q
#3130
0"
0+
06
0H
#3135
1"
1+
16
1H
b110 F
b110 Q
#3140
0"
0+
06
0H
#3145
1"
1+
16
1H
b111 F
b111 Q
#3150
0"
0+
06
0H
#3155
1"
1+
16
1H
b1000 F
b1000 Q
#3160
0"
0+
06
0H
#3165
1"
1+
16
1H
b1001 F
b1001 Q
#3170
0"
0+
06
0H
#3175
1"
1+
16
1H
b1010 F
b1010 Q
#3180
0"
0+
06
0H
#3185
1"
1+
16
1H
b0 F
1E
b0 Q
1R
1*
14
b101 D
1@
b1 G
0J
b11 S
05
13
#3190
0"
0+
06
0H
#3195
1"
1+
16
1H
b1 F
b1 Q
#3200
0"
0+
06
0H
#3205
1"
1+
16
1H
b10 F
b10 Q
#3210
0"
0+
06
0H
